firstnames,lastname,passportnumber,destination,id
David Cummings,Vladimir,757037,Tajikistan,324987654
Driscoll Langley,Ira,7487,Burkina Faso,435398765
Alan Suarez,Akeem,29261-565,Benin,3243534598765
Kibo Dickerson,Bradley,123735,Senegal,3243587654
Neil Woodward,Ethan,703344,Zimbabwe,4353587654
Calvin Sullivan,Quinlan,80459,Cape Verde,43539876
Andrew Craig,Barclay,00371-631,Panama,534798765
Dante Barrett,Hayden,3144 UN,New Zealand,098765
Clark Steele,Donovan,34731,Viet Nam,876548765